generated/ProgramCounter.vcd
$date
2021-11-03T13:16+0000
$end
$version
0.2
$end
$comment

$end
$timescale 1ns  $end
$scope module ProgramCounter $end
 $var wire 16 ! _GEN_2 $end
 $var wire 1 " _T $end
 $var wire 1 # io_jump $end
 $var wire 1 $ io_stop $end
 $var wire 16 % io_programCounter $end
 $var wire 16 & _GEN_1 $end
 $var wire 1 ' clock $end
 $var wire 16 ( programCounterNext $end
 $var wire 16 ) io_programCounterJump $end
 $var wire 16 * _GEN_0 $end
 $var wire 1 + reset $end
 $var wire 16 , _GEN_3 $end
 $var wire 1 - io_run $end
$upscope $end
$enddefinitions $end
$dumpvars
0"
b0000000000000000 (
b0000000000000000 %
0#
0-
b0000000000000000 ,
0'
b0000000000000000 )
b0000000000000000 !
0+
b0000000000000000 &
0$
b0000000000000000 *
$end
#0
1"
1+
#1
1'
#6
0'
#11
1'
#16
0'
#21
1'
#26
0'
#31
1'
#36
0'
#41
1'
#46
b0000000000000001 !
1-
0"
b0000000000000001 &
0'
0+
b0000000000000001 ,
#51
b0000000000000010 !
b0000000000000001 %
b0000000000000010 &
b0000000000000001 *
1'
b0000000000000001 (
b0000000000000010 ,
#56
0'
#61
b0000000000000011 !
b0000000000000010 %
b0000000000000011 &
b0000000000000010 *
1'
b0000000000000010 (
b0000000000000011 ,
#66
0'
#71
b0000000000000100 !
b0000000000000011 %
b0000000000000100 &
b0000000000000011 *
1'
b0000000000000011 (
b0000000000000100 ,
#76
0'
#81
b0000000000000101 !
b0000000000000100 %
b0000000000000101 &
b0000000000000100 *
1'
b0000000000000100 (
b0000000000000101 ,
#86
0'
#91
b0000000000000110 !
b0000000000000101 %
b0000000000000110 &
b0000000000000101 *
1'
b0000000000000101 (
b0000000000000110 ,
#96
b0000000000000101 !
b0000000000000101 &
0'
1$
b0000000000000101 ,
#101
1'
#106
0'
#111
1'
#116
0'
#121
1'
#126
0'
#131
1'
#136
0'
#141
1'
#146
0-
1"
0'
0$
#151
1'
#156
0'
#161
1'
#166
0'
#171
1'
#176
0'
#181
1'
#186
0'
#191
1'
#196
b0000000000011110 !
1-
0"
b0000000000011110 &
1#
b0000000000011110 *
0'
b0000000000011110 ,
b0000000000011110 )
#201
b0000000000011110 %
1'
b0000000000011110 (
#206
b0000000000011111 !
b0000000000011111 &
0#
0'
b0000000000011111 ,
b0000000000000000 )
#211
b0000000000100000 !
b0000000000011111 %
b0000000000100000 &
b0000000000011111 *
1'
b0000000000011111 (
b0000000000100000 ,
#216
0'
#221
b0000000000100001 !
b0000000000100000 %
b0000000000100001 &
b0000000000100000 *
1'
b0000000000100000 (
b0000000000100001 ,
#226
0'
#231
b0000000000100010 !
b0000000000100001 %
b0000000000100010 &
b0000000000100001 *
1'
b0000000000100001 (
b0000000000100010 ,
#236
0'
#241
b0000000000100011 !
b0000000000100010 %
b0000000000100011 &
b0000000000100010 *
1'
b0000000000100010 (
b0000000000100011 ,
#246
0'
#251
b0000000000100100 !
b0000000000100011 %
b0000000000100100 &
b0000000000100011 *
1'
b0000000000100011 (
b0000000000100100 ,
